order number;certification type;article certification;language
1;Kennzeichnung für Produkte über die Einhaltung gesetzlicher Mindestanforderungen der EU;CE;deu
1;Labeling for products that comply with the minimum legal requirements of the EU;CE;eng
2;Elektromagnetische Verträglichkeit;EMV;deu
2;Electromagnetic compatibility;EMC;eng
3;Gefahrstoffe in Elektro- und Elektronikgeräten;RoHS;deu
3;Hazardous substances in electrical and electronic devices;RoHS;eng
4;Sicherheit elektrischer Geräte für den Hausgebrauch und ähnliche Zwecke - Teil 2-2: Besondere Anforderungen für Staubsauger und Wassersauger;EN 60335-2-2;deu
4;Household and similar electrical appliances - Safety - Part 2-2: Particular requirements for vacuum cleaners and water cleaners;EN 60335-2-2;eng
5;Reinigungs- und Desinfektionsgeräte;EN ISO 15883;deu
5;Cleaning and disinfection devices;EN ISO 15883;eng
